…
We're going to the vcfR package to convert our vcf file, into a tidy format for easy manipulation
in R.

```R
vcf_file <- "/home/grego/lab_7/lab_7.fb.Q20.vcf"
vcf <- read.vcfR(vcf_file)
#extract the genotypes
gt_data <- vcfR2tidy(vcf, format_fields = 'GT' )
gt = gt_data$gt
names(gt) = c('Chr','Position','ID','Genotype','Allele')
gt
```
```output
# A tibble: 620 × 5
     Chr Position ID       Genotype Allele
   <int>    <int> <chr>    <chr>    <chr> 
 1     1  1055444 sample_8 NA       .     
 2     1  1357852 sample_8 1/1      A/A   
 3     1  1901255 sample_8 NA       .     
 4     1  2068429 sample_8 NA       .     
 5     1  2069422 sample_8 NA       .     
 6     1  2340711 sample_8 0/0      T/T   
 7     1  2366756 sample_8 1/1      G/G   
 8     1  2431471 sample_8 NA       .     
 9     1  2746213 sample_8 1/1      C/C   
10     1  2896664 sample_8 0/0      C/C   
# ℹ 610 more rows
# ℹ Use `print(n = ...)` to see more rows
```
…
